Forecasting Dengue in Sri Lanka: A Journey Through Challenges, Actions, and Lessons Learned
…
There is no centralized repository providing readily accessible, analysis-ready dengue data.

Actions

Action 1: Dengue Data Hub

denguedatahub R package

#pak::pak("thiyangt/denguedatahub")
#install.packages("denguedatahub")
library(denguedatahub)
srilanka_weekly_data

# A tibble: 26,311 × 6
    year  week start.date end.date   district    cases
   <dbl> <dbl> <chr>      <chr>      <chr>       <dbl>
 1  2006    52 12/23/2006 12/29/2006 Colombo        71
 2  2006    52 12/23/2006 12/29/2006 Gampaha        12
 3  2006    52 12/23/2006 12/29/2006 Kalutara       12
 4  2006    52 12/23/2006 12/29/2006 Kandy          20
 5  2006    52 12/23/2006 12/29/2006 Matale          4
 6  2006    52 12/23/2006 12/29/2006 NuwaraEliya     1
 7  2006    52 12/23/2006 12/29/2006 Galle           1
 8  2006    52 12/23/2006 12/29/2006 Hambanthota     1
 9  2006    52 12/23/2006 12/29/2006 Matara         11
10  2006    52 12/23/2006 12/29/2006 Jaffna          0
# ℹ 26,301 more rows
…
